Differential gene expression analysis
…
Print table with top DE genes

n_genes = 30
top_genes <- res_df %>%
  na.omit() %>%
  filter(abs(log2FoldChange) > 1.5) %>%
  filter(pvalue < 0.05) %>%
  arrange(desc(abs(log2FoldChange)), pvalue) %>%
  head(n_genes) %>%
  dplyr::select(gene) %>%
  pull()

as_tibble(res_df[res_df$gene %in% top_genes,])

## # A tibble: 30 x 8
##    symbol  gene            baseMean log2FoldChange lfcSE  stat    pvalue    padj
##    <chr>   <chr>              <dbl>          <dbl> <dbl> <dbl>     <dbl>   <dbl>
##  1 VSIG1   ENSG0000010184    535.           -3.30 0.669 -4.94   7.77e-7 0.00257
##  2 CNTD2   ENSG0000010521     96.0          -3.27 0.781 -4.18   2.88e-5 0.0164 
##  3 MUC5B   ENSG0000011798  27001.           -3.74 0.824 -4.55   5.49e-6 0.00626
##  4 PAEP    ENSG0000012213    657.           -3.14 1.12  -2.81   4.96e-3 0.179  
##  5 FEZF1   ENSG0000012861     63.6          -2.97 0.730 -4.07   4.60e-5 0.0213 
##  6 CDC20B  ENSG0000016428     68.0          -3.77 0.891 -4.23   2.29e-5 0.0157 
##  7 MS4A15  ENSG0000016696    515.            3.39 1.16   2.92   3.52e-3 0.158  
##  8 ANGPTL4 ENSG0000016777   3123.           -3.07 0.688 -4.46   8.02e-6 0.00834
##  9 FAM153A ENSG0000017007    206.           -3.17 0.631 -5.02   5.17e-7 0.00257
## 10 WDR87   ENSG0000017180     40.6           2.83 0.903  3.13   1.73e-3 0.123  
## #  with 20 more rows
…
hallmark_path <- '../data/GSEA/h.all.v7.1.symbols.gmt'
pth <- gmtPathways(hallmark_path)
res_hallmark <- fgseaMultilevel(pathways=pth, stats=ranks, eps = 0, nPermSimple = 10000) %>%
            as_tibble %>%
            arrange(padj, desc(abs(NES)))
res_hallmark$state <- ifelse(res_hallmark$NES > 0, "up", "down")
res_hallmark$leadingEdge <- sapply(res_hallmark$leadingEdge, . %>% {
  str_c(., collapse = " ")})

res_hallmark <- res_hallmark %>% relocate(state, .after = pathway)

as_tibble(res_hallmark)

## # A tibble: 50 x 9
##    pathway    state     pval     padj log2err     ES   NES  size leadingEdge    
##    <chr>      <chr>    <dbl>    <dbl>   <dbl>  <dbl> <dbl> <int> <chr>          
##  1 HALLMARK_ up    1.50e-10  7.52e-9   0.827  0.407  2.20   189 LUM CAP2 CALU 
##  2 HALLMARK_ up    9.65e- 7  2.41e-5   0.644  0.339  1.83   188 NBN EZH2 SMC4 
##  3 HALLMARK_ down  1.55e- 6  2.58e-5   0.644 -0.402 -1.84   185 LIF CYFIP2 TRA
##  4 HALLMARK_ down  5.41e- 6  6.76e-5   0.611 -0.389 -1.79   188 BHLHE40 SLC27A
##  5 HALLMARK_ up    1.28e- 5  1.28e-4   0.593  0.328  1.77   184 MEIS1 TTK EZH2
##  6 HALLMARK_ up    1.01e- 4  8.46e-4   0.538  0.294  1.58   182 RELN PTPRR LY9
##  7 HALLMARK_ down  4.95e- 4  3.53e-3   0.477 -0.476 -1.83    57 PPAN SLC29A2 G
##  8 HALLMARK_ up    1.49e- 3  9.32e-3   0.455  0.348  1.67    88 JAM3 ZC3H14 DC
##  9 HALLMARK_ up    1.81e- 3  1.01e-2   0.455  0.271  1.45   176 CDH13 C9 GNB4 
## 10 HALLMARK_ up    2.75e- 3  1.37e-2   0.432  0.338  1.62    88 CAV2 GALC AP3S
## #  with 40 more rows
…
## Warning in preparePathwaysAndStats(pathways, stats, minSize, maxSize, gseaParam, : There are ties in the preranked stats (0.01% of the list).
## The order of those tied genes will be arbitrary, which may produce unexpected results.

res_reactome$state <- ifelse(res_reactome$NES > 0, "up", "down")
res_reactome$leadingEdge <- sapply(res_reactome$leadingEdge, . %>% {
  str_c(., collapse = " ")})

res_reactome <- res_reactome %>% relocate(state, .after = pathway)

as_tibble(res_reactome)

## # A tibble: 2,330 x 9
##    pathway     state     pval    padj log2err     ES   NES  size leadingEdge    
##    <chr>       <chr>    <dbl>   <dbl>   <dbl>  <dbl> <dbl> <int> <chr>          
##  1 rRNA proce down   1.58e-8 3.69e-5   0.734 -0.445 -2.01   178 8602 6122 6193
##  2 rRNA proce down   4.34e-8 5.05e-5   0.720 -0.441 -1.99   174 8602 6122 6193
##  3 Eukaryotic down   2.69e-7 1.25e-4   0.675 -0.527 -2.15    84 1938 6122 6193
##  4 Peptide ch down   2.45e-7 1.25e-4   0.675 -0.522 -2.12    81 1938 6122 6193
##  5 Major path down   1.85e-7 1.25e-4   0.690 -0.439 -1.97   165 8602 6122 6193
##  6 Cell Cycle up     3.51e-7 1.36e-4   0.675  0.309  1.78   238 4683 10926 800
##  7 Extracellu up     1.13e-6 3.76e-4   0.644  0.295  1.72   268 4060 84467 163
##  8 Viral mRNA down   1.90e-6 5.55e-4   0.644 -0.503 -2.04    81 6122 6193 6188
##  9 Eukaryotic down   3.74e-6 9.69e-4   0.627 -0.501 -2.05    84 6122 6193 6188
## 10 Selenocyst down   4.57e-6 1.06e-3   0.611 -0.499 -2.04    84 6122 6193 6188
## #  with 2,320 more rows
…
